%YAML 1.1
%TAG !u! tag:unity3d.com,2011:
--- !u!114 &11400000
MonoBehaviour:
  m_ObjectHideFlags: 0
  m_CorrespondingSourceObject: {fileID: 0}
  m_PrefabInstance: {fileID: 0}
  m_PrefabAsset: {fileID: 0}
  m_GameObject: {fileID: 0}
  m_Enabled: 1
  m_EditorHideFlags: 0
  m_Script: {fileID: 11500000, guid: 1b5a32eb4ab46f94b85e0fd3cfbaf1e3, type: 3}
  m_Name: Question5
  m_EditorClassIdentifier: 
  id: 1
  questionImage: {fileID: 21300000, guid: b2617e4099f689244ade72547a66bc77, type: 3}
  description: 1 + 2 =
  answer: 3
