%YAML 1.1
%TAG !u! tag:unity3d.com,2011:
--- !u!21 &2100000
Material:
  serializedVersion: 6
  m_ObjectHideFlags: 0
  m_CorrespondingSourceObject: {fileID: 0}
  m_PrefabInstance: {fileID: 0}
  m_PrefabAsset: {fileID: 0}
  m_Name: MatFabric01
  m_Shader: {fileID: 46, guid: 0000000000000000f000000000000000, type: 0}
  m_ShaderKeywords: 
  m_LightmapFlags: 4
  m_EnableInstancingVariants: 0
  m_DoubleSidedGI: 0
  m_CustomRenderQueue: -1
  stringTagMap: {}
  disabledShaderPasses: []
  m_SavedProperties:
    serializedVersion: 3
    m_TexEnvs:
    - _Albedo:
        m_Texture: {fileID: 2800000, guid: 5d324c295a8f67741a374a302286c5f8, type: 3}
        m_Scale: {x: 12, y: 12}
        m_Offset: {x: 0, y: 0}
    - _AlbedoDetail:
        m_Texture: {fileID: 2800000, guid: 14d331580f4e6b34093b81a97cef2fa7, type: 3}
        m_Scale: {x: 5, y: 3}
        m_Offset: {x: 0, y: 0}
    - _BumpMap:
        m_Texture: {fileID: 0}
        m_Scale: {x: 1, y: 1}
        m_Offset: {x: 0, y: 0}
    - _DetailAlbedoMap:
        m_Texture: {fileID: 0}
        m_Scale: {x: 1, y: 1}
        m_Offset: {x: 0, y: 0}
    - _DetailMask:
        m_Texture: {fileID: 0}
        m_Scale: {x: 1, y: 1}
        m_Offset: {x: 0, y: 0}
    - _DetailNormalMap:
        m_Texture: {fileID: 0}
        m_Scale: {x: 1, y: 1}
        m_Offset: {x: 0, y: 0}
    - _DetailsNormal:
        m_Texture: {fileID: 2800000, guid: a6a01b19736821f478038b5df3a814df, type: 3}
        m_Scale: {x: 5, y: 3}
        m_Offset: {x: 0, y: 0}
    - _DetailsNormal_copy:
        m_Texture: {fileID: 0}
        m_Scale: {x: 1, y: 1}
        m_Offset: {x: 0, y: 0}
    - _EmissionMap:
        m_Texture: {fileID: 0}
        m_Scale: {x: 1, y: 1}
        m_Offset: {x: 0, y: 0}
    - _MainTex:
        m_Texture: {fileID: 2800000, guid: 14d331580f4e6b34093b81a97cef2fa7, type: 3}
        m_Scale: {x: 1, y: 1}
        m_Offset: {x: 0, y: 0}
    - _MetallicGlossMap:
        m_Texture: {fileID: 0}
        m_Scale: {x: 1, y: 1}
        m_Offset: {x: 0, y: 0}
    - _Normal:
        m_Texture: {fileID: 2800000, guid: 5b0ee4d0f7acbc743ae71b8df441d3a4, type: 3}
        m_Scale: {x: 12, y: 12}
        m_Offset: {x: 0, y: 0}
    - _OcclusionMap:
        m_Texture: {fileID: 0}
        m_Scale: {x: 1, y: 1}
        m_Offset: {x: 0, y: 0}
    - _ParallaxMap:
        m_Texture: {fileID: 0}
        m_Scale: {x: 1, y: 1}
        m_Offset: {x: 0, y: 0}
    - _Specular:
        m_Texture: {fileID: 2800000, guid: 00841ee36df52e04d98efdc1c96d2238, type: 3}
        m_Scale: {x: 12, y: 12}
        m_Offset: {x: 0, y: 0}
    - _SpecularDetail:
        m_Texture: {fileID: 2800000, guid: 03b3da7c6dba6a4469f50f8676a6d3ee, type: 3}
        m_Scale: {x: 5, y: 3}
        m_Offset: {x: 0, y: 0}
    m_Floats:
    - _AlbedoDetailIntensity: 1.24
    - _AlbedoIntensity: 1
    - _BumpScale: 1
    - _Cutoff: 0.5
    - _DetailNormalMapScale: 1
    - _DetailNormalintensity: 1.07
    - _DetailNormalintensity_copy: 0
    - _DetailSmoothnessLerp: 0.208
    - _DetailSpecularLerp: 0
    - _DstBlend: 0
    - _GlossMapScale: 1
    - _Glossiness: 0.5
    - _GlossyReflections: 1
    - _Metallic: 0
    - _Mode: 0
    - _Normalintensity: 0.9
    - _OcclusionStrength: 1
    - _Parallax: 0.02
    - _Smoothness: 1.215
    - _SmoothnessTextureChannel: 0
    - _SpecularHighlights: 1
    - _SrcBlend: 1
    - _UVSec: 0
    - _VertexAlphaIntensity: 1
    - _VertexAlphaOffset: 0.433
    - _VertexColorIntensity: 1.91
    - _VertexColorLerp: 1
    - _ZWrite: 1
    m_Colors:
    - _Color: {r: 1, g: 1, b: 1, a: 1}
    - _EmissionColor: {r: 0, g: 0, b: 0, a: 1}
    - _SpecularColor: {r: 1, g: 1, b: 1, a: 1}
    - _SpecularDetailColor: {r: 0.5, g: 0.5, b: 0.5, a: 1}
    - _VertexColorOffset: {r: 0, g: 0, b: 0, a: 0}
